^C:\USERS\МАРИЯ\DESKTOP\СРЁША\GAMEDEV\C++\HW15\DEBUG\HW15.OBJ
C:\USERS\Мария\DESKTOP\Срёша\GAMEDEV\C++\HW15\DEBUG\HW15.EXE
C:\USERS\Мария\DESKTOP\Срёша\GAMEDEV\C++\HW15\DEBUG\HW15.ILK
C:\USERS\МАРИЯ\DESKTOP\СРЁША\GAMEDEV\C++\HW15\DEBUG\HW15.PDB
